…
Lastly, we used the `modelr` package to show how to use the model to add
predictions and residuals to our data:

``` r
library(modelr)

cps_new %>%
    add_predictions(mod) %>%
    add_residuals(mod)
```

    ## # A tibble: 1,010 x 7
    ##    incwage age       sex    yrsed college      pred   resid
    ##      <dbl> <dbl+lbl> <chr>  <dbl> <chr>       <dbl>   <dbl>
    ##  1   15000 33        male    17   college    38155. -23155.
    ##  2       0 83        female  12   no_college  3349.  -3349.
    ##  3       0 16        female   9   no_college  6471.  -6471.
    ##  4   62950 49        male    12   no_college 18943.  44007.
    ##  5       0 89        female   6.5 no_college  3070.  -3070.
    ##  6    7770 33        female  14   college    24145. -16375.
    ##  7   16000 30        female  17   college    24285.  -8285.
    ##  8       0 17        male    10   no_college 20434. -20434.
    ##  9       0 60        male    12   no_college 18431. -18431.
    ## 10   10000 51        female  12   no_college  4840.   5160.
    ## # … with 1,000 more rows
